{
  "project_info": {
    "project_number": "844417768025",
    "firebase_url": "https://qrcamera-68a88.firebaseio.com",
    "project_id": "qrcamera-68a88",
    "storage_bucket": "qrcamera-68a88.appspot.com"
  },
  "client": [
    {
      "client_info": {
        "mobilesdk_app_id": "1:844417768025:android:f9a521bdf175a86b",
        "android_client_info": {
          "package_name": "com.josimar.qrscanner"
        }
      },
      "oauth_client": [
        {
          "client_id": "844417768025-oc97tjgk0vlqb8pp6819hm90ns0hvuus.apps.googleusercontent.com",
          "client_type": 3
        }
      ],
      "api_key": [
        {
          "current_key": "AIzaSyBGrB8KucYgBQ4lwGgQNjYyggvUjGCVG8o"
        }
      ],
      "services": {
        "analytics_service": {
          "status": 1
        },
        "appinvite_service": {
          "status": 1,
          "other_platform_oauth_client": []
        },
        "ads_service": {
          "status": 2
        }
      }
    }
  ],
  "configuration_version": "1"
}